[
  {
    "id": 1,
    "title": "React: Up & Running: Building Web Applications",
    "description": "Hit the ground running with React, the open-source technology from Facebook for building rich web applications fast.",
    "author": "Stoyan Stefanov"
  },
  {
    "id": 2,
    "title": "React.js Essentials",
    "description": "A fast-paced guide to designing and building scalable and maintainable web apps with React.jsAbout This Book- Build maintainable and performant user interfaces for your web applications using React.js",
    "author": "Artemij Fedosejev"
  },
  {
    "id": 3,
    "title": "Learning React Native: Building Native Mobile Apps with JavaScript",
    "description": "Get a practical introduction to React Native, the JavaScript framework for writing and deploying fully featured mobile apps that look and feel native",
    "author": "Bonnie Eisenman"
  },
  {
    "id": 4,
    "title": "Mastering React",
    "description": "Master the art of building modern web applications using ReactAbout This Book- Write a complete application in React using an array of supporting libraries, both specifically React-related and general ",
    "author": "Adam Horton and Ryan Vice"
  },
  {
    "id": 5,
    "title": "Introduction to React",
    "description": "Introduction to React uses just 180 pages to teach you React, the JavaScript framework created by developers at Facebook in order to solve the problem of building complex user interfaces in a consistent",
    "author": "Cory Gackenheimer"
  }
]
